module api-stream-serveur

go 1.15

require (
	github.com/golang/protobuf v1.4.3
	github.com/google/go-cmp v0.5.4 // indirect
	golang.org/x/net v0.0.0-20210119194325-5f4716e94777 // indirect
	golang.org/x/sys v0.0.0-20210119212857-b64e53b001e4 // indirect
	golang.org/x/text v0.3.5 // indirect
	golang.org/x/xerrors v0.0.0-20200804184101-5ec99f83aff1 // indirect
	google.golang.org/genproto v0.0.0-20210120162456-f5e8c5e2aaf2 // indirect
	google.golang.org/grpc v1.35.0
	google.golang.org/protobuf v1.25.0
)
