module blog

go 1.19

require (
	github.com/golang/protobuf v1.5.2
	go.mongodb.org/mongo-driver v1.10.1
	google.golang.org/grpc v1.48.0
	google.golang.org/protobuf v1.28.1
)

require (
	github.com/golang/snappy v0.0.4 // indirect
	github.com/klauspost/compress v1.15.9 // indirect
	github.com/montanaflynn/stats v0.6.6 // indirect
	github.com/pkg/errors v0.9.1 // indirect
	github.com/xdg-go/pbkdf2 v1.0.0 // indirect
	github.com/xdg-go/scram v1.1.1 // indirect
	github.com/xdg-go/stringprep v1.0.3 // indirect
	github.com/youmark/pkcs8 v0.0.0-20201027041543-1326539a0a0a // indirect
	golang.org/x/crypto v0.0.0-20220722155217-630584e8d5aa // indirect
	golang.org/x/net v0.0.0-20220812174116-3211cb980234 // indirect
	golang.org/x/sync v0.0.0-20220722155255-886fb9371eb4 // indirect
	golang.org/x/sys v0.0.0-20220817070843-5a390386f1f2 // indirect
	golang.org/x/text v0.3.7 // indirect
	google.golang.org/genproto v0.0.0-20220815135757-37a418bb8959 // indirect
)
