module exoApiUnaire

go 1.15

require (
	github.com/golang/protobuf v1.4.3
	golang.org/x/net v0.0.0-20201224014010-6772e930b67b // indirect
	golang.org/x/sys v0.0.0-20210113181707-4bcb84eeeb78 // indirect
	golang.org/x/text v0.3.5 // indirect
	google.golang.org/genproto v0.0.0-20210114201628-6edceaf6022f // indirect
	google.golang.org/grpc v1.35.0
	google.golang.org/protobuf v1.25.0
)
